<<<<<<< HEAD
UnlitGeneric
{
$baseTexture "vgui/hud/icon_commentary_off"
$translucent 1
$alpha 1
$vertexalpha 1
$ignorez 1
$no_fullbright 1
$vertexcolor 1
=======
"UnlitGeneric"
{
	"$baseTexture" "vgui/hud/icon_commentary_off"
	"$translucent" 1
	"$alpha" "1"
	"$vertexalpha" "1"
	"$ignorez"     "1"
	"$no_fullbright" "1"	
	"$vertextcolor" "1"
>>>>>>> master
}
