"Resource/OptionsSubMultiplayer.res"
{
	"OptionsSubMultiplayer"
	{
		"ControlName"		"COptionsSubMultiplayer"
		"fieldName"		"OptionsSubMultiplayer"
		"xpos"		"0"
		"ypos"		"27"
		"wide"		"501"
		"tall"		"331"
		"autoResize"		"0"
		"pinCorner"		"0"
		"RoundedCorners"		"15"
		"pin_corner_to_sibling"		"0"
		"pin_to_sibling_corner"		"0"
		"visible"		"1"
		"enabled"		"1"
		"tabPosition"		"0"
	}
	"Cancel"
	{
		"ControlName"		"Button"
		"fieldName"		"Cancel"
		"xpos"		"383"
		"ypos"		"338"
		"wide"		"60"
		"tall"		"20"
		"autoResize"		"0"
		"pinCorner"		"3"
		"RoundedCorners"		"15"
		"pin_corner_to_sibling"		"0"
		"pin_to_sibling_corner"		"0"
		"visible"		"1"
		"enabled"		"1"
		"tabPosition"		"0"
		"labelText"		"#GameUI_Cancel"
		"textAlignment"		"west"
		"dulltext"		"0"
		"brighttext"		"0"
		"wrap"		"0"
		"centerwrap"		"0"
		"textinsetx"		"6"
		"textinsety"		"0"
		"auto_wide_tocontents"		"0"
		"use_proportional_insets"		"0"
		"command"		"Close"
		"Default"		"0"
	}
	"ok"
	{
		"ControlName"		"Button"
		"fieldName"		"OK"
		"xpos"		"313"
		"ypos"		"338"
		"wide"		"60"
		"tall"		"20"
		"autoResize"		"0"
		"pinCorner"		"3"
		"RoundedCorners"		"15"
		"pin_corner_to_sibling"		"0"
		"pin_to_sibling_corner"		"0"
		"visible"		"1"
		"enabled"		"1"
		"tabPosition"		"0"
		"labelText"		"#GameUI_OK"
		"textAlignment"		"west"
		"dulltext"		"0"
		"brighttext"		"0"
		"wrap"		"0"
		"centerwrap"		"0"
		"textinsetx"		"6"
		"textinsety"		"0"
		"auto_wide_tocontents"		"0"
		"use_proportional_insets"		"0"
		"command"		"Ok"
		"Default"		"0"
	}
	"Apply"
	{
		"ControlName"		"Button"
		"fieldName"		"Apply"
		"xpos"		"453"
		"ypos"		"338"
		"wide"		"60"
		"tall"		"20"
		"autoResize"		"0"
		"pinCorner"		"3"
		"RoundedCorners"		"15"
		"pin_corner_to_sibling"		"0"
		"pin_to_sibling_corner"		"0"
		"visible"		"1"
		"enabled"		"1"
		"tabPosition"		"0"
		"labelText"		"#GameUI_Apply"
		"textAlignment"		"west"
		"dulltext"		"0"
		"brighttext"		"0"
		"wrap"		"0"
		"centerwrap"		"0"
		"textinsetx"		"6"
		"textinsety"		"0"
		"auto_wide_tocontents"		"0"
		"use_proportional_insets"		"0"
		"command"		"Apply"
		"Default"		"0"
	}
	"Advanced"
	{
		"ControlName"		"Button"
		"fieldName"		"Advanced"
		"xpos"		"40"
		"ypos"		"260"
		"wide"		"120"
		"tall"		"20"
		"autoResize"		"0"
		"pinCorner"		"0"
		"RoundedCorners"		"15"
		"pin_corner_to_sibling"		"0"
		"pin_to_sibling_corner"		"0"
		"visible"		"0"
		"enabled"		"0"
		"tabPosition"		"9"
		"labelText"		"#GameUI_AdvancedEllipsis"
		"textAlignment"		"west"
		"dulltext"		"0"
		"brighttext"		"0"
		"wrap"		"0"
		"centerwrap"		"0"
		"textinsetx"		"6"
		"textinsety"		"0"
		"auto_wide_tocontents"		"0"
		"use_proportional_insets"		"0"
		"command"		"Advanced"
		"Default"		"0"
	}
	"ImportSprayImage"
	{
		"ControlName"		"Button"
		"fieldName"		"ImportSprayImage"
		"xpos"		"100"
		"ypos"		"90"
		"wide"		"120"
		"tall"		"20"
		"autoResize"		"0"
		"pinCorner"		"0"
		"RoundedCorners"		"15"
		"pin_corner_to_sibling"		"0"
		"pin_to_sibling_corner"		"0"
		"visible"		"1"
		"enabled"		"1"
		"tabPosition"		"0"
		"labelText"		"#GameUI_ImportSprayEllipsis"
		"textAlignment"		"west"
		"dulltext"		"0"
		"brighttext"		"0"
		"wrap"		"0"
		"centerwrap"		"0"
		"textinsetx"		"6"
		"textinsety"		"0"
		"auto_wide_tocontents"		"0"
		"use_proportional_insets"		"0"
		"command"		"ImportSprayImage"
		"Default"		"0"
	}
	"Primary Color Slider"
	{
		"ControlName"		"CCvarSlider"
		"fieldName"		"Primary Color Slider"
		"xpos"		"20"
		"ypos"		"185"
		"wide"		"140"
		"tall"		"35"
		"autoResize"		"0"
		"pinCorner"		"0"
		"RoundedCorners"		"15"
		"pin_corner_to_sibling"		"0"
		"pin_to_sibling_corner"		"0"
		"visible"		"0"
		"enabled"		"1"
		"tabPosition"		"3"
		"leftText"		" "
		"rightText"		" "
	}
	"Secondary Color Slider"
	{
		"ControlName"		"CCvarSlider"
		"fieldName"		"Secondary Color Slider"
		"xpos"		"20"
		"ypos"		"220"
		"wide"		"140"
		"tall"		"40"
		"autoResize"		"0"
		"pinCorner"		"0"
		"RoundedCorners"		"15"
		"pin_corner_to_sibling"		"0"
		"pin_to_sibling_corner"		"0"
		"visible"		"0"
		"enabled"		"1"
		"tabPosition"		"4"
		"leftText"		" "
		"rightText"		" "
	}
	"High Quality Models"
	{
		"ControlName"		"CCvarToggleCheckButton"
		"fieldName"		"High Quality Models"
		"xpos"		"0"
		"ypos"		"0"
		"wide"		"60"
		"tall"		"20"
		"autoResize"		"0"
		"pinCorner"		"0"
		"RoundedCorners"		"15"
		"pin_corner_to_sibling"		"0"
		"pin_to_sibling_corner"		"0"
		"visible"		"0"
		"enabled"		"1"
		"tabPosition"		"0"
		"labelText"		"#GameUI_HighModels"
		"textAlignment"		"west"
		"dulltext"		"0"
		"brighttext"		"0"
		"wrap"		"0"
		"centerwrap"		"0"
		"textinsetx"		"6"
		"textinsety"		"0"
		"auto_wide_tocontents"		"0"
		"use_proportional_insets"		"0"
		"Default"		"0"
	}
	"Player model"
	{
		"ControlName"		"CLabeledCommandComboBox"
		"fieldName"		"Player model"
		"xpos"		"261"
		"ypos"		"245"
		"zpos"		"2"
		"wide"		"231"
		"tall"		"20"
		"autoResize"		"0"
		"pinCorner"		"0"
		"RoundedCorners"		"15"
		"pin_corner_to_sibling"		"0"
		"pin_to_sibling_corner"		"0"
		"visible"		"1"
		"enabled"		"1"
		"tabPosition"		"2"
		"textHidden"		"0"
		"editable"		"0"
		"maxchars"		"-1"
		"NumericInputOnly"		"0"
		"unicode"		"0"
	}
	"SpraypaintList"
	{
		"ControlName"		"CLabeledCommandComboBox"
		"fieldName"		"SpraypaintList"
		"xpos"		"100"
		"ypos"		"60"
		"wide"		"120"
		"tall"		"20"
		"autoResize"		"0"
		"pinCorner"		"0"
		"RoundedCorners"		"15"
		"pin_corner_to_sibling"		"0"
		"pin_to_sibling_corner"		"0"
		"visible"		"1"
		"enabled"		"1"
		"tabPosition"		"2"
		"textHidden"		"0"
		"editable"		"0"
		"maxchars"		"-1"
		"NumericInputOnly"		"0"
		"unicode"		"0"
	}
	"ModelImage"
	{
		"ControlName"		"Panel"
		"fieldName"		"ModelImage"
		"xpos"		"273"
		"ypos"		"14"
		"wide"		"237"
		"tall"		"256"
		"autoResize"		"0"
		"pinCorner"		"0"
		"RoundedCorners"		"15"
		"pin_corner_to_sibling"		"0"
		"pin_to_sibling_corner"		"0"
		"visible"		"1"
		"enabled"		"1"
		"tabPosition"		"0"
	}
	"LogoImage"
	{
		"ControlName"		"ImagePanel"
		"fieldName"		"LogoImage"
		"xpos"		"25"
		"ypos"		"60"
		"wide"		"60"
		"tall"		"60"
		"autoResize"		"0"
		"pinCorner"		"0"
		"RoundedCorners"		"15"
		"pin_corner_to_sibling"		"0"
		"pin_to_sibling_corner"		"0"
		"visible"		"1"
		"enabled"		"1"
		"tabPosition"		"0"
		"image"		"logos/UI/spray"
		"border"		"DepressedBorder"
		"scaleImage"		"1"
		"scaleAmount"		"0.000000"
		"tileImage"		"0"
		"tileHorizontally"		"0"
		"tileVertically"		"0"
	}
	"CrosshairColorComboBox"
	{
		"ControlName"		"ComboBox"
		"fieldName"		"CrosshairColorComboBox"
		"xpos"		"350"
		"ypos"		"160"
		"wide"		"105"
		"tall"		"20"
		"autoResize"		"0"
		"pinCorner"		"0"
		"RoundedCorners"		"15"
		"pin_corner_to_sibling"		"0"
		"pin_to_sibling_corner"		"0"
		"visible"		"0"
		"enabled"		"1"
		"tabPosition"		"8"
		"textHidden"		"0"
		"editable"		"0"
		"maxchars"		"-1"
		"NumericInputOnly"		"0"
		"unicode"		"0"
	}
	"CrosshairSizeComboBox"
	{
		"ControlName"		"CLabeledCommandComboBox"
		"fieldName"		"CrosshairSizeComboBox"
		"xpos"		"350"
		"ypos"		"120"
		"wide"		"105"
		"tall"		"20"
		"autoResize"		"0"
		"pinCorner"		"0"
		"RoundedCorners"		"15"
		"pin_corner_to_sibling"		"0"
		"pin_to_sibling_corner"		"0"
		"visible"		"0"
		"enabled"		"1"
		"tabPosition"		"6"
		"textHidden"		"0"
		"editable"		"0"
		"maxchars"		"-1"
		"NumericInputOnly"		"0"
		"unicode"		"0"
	}
	"CrosshairTranslucencyCheckbox"
	{
		"ControlName"		"CCvarToggleCheckButton"
		"fieldName"		"CrosshairTranslucencyCheckbox"
		"xpos"		"280"
		"ypos"		"185"
		"wide"		"180"
		"tall"		"20"
		"autoResize"		"0"
		"pinCorner"		"0"
		"RoundedCorners"		"15"
		"pin_corner_to_sibling"		"0"
		"pin_to_sibling_corner"		"0"
		"visible"		"0"
		"enabled"		"1"
		"tabPosition"		"0"
		"labelText"		"#GameUI_Translucent"
		"textAlignment"		"west"
		"dulltext"		"0"
		"brighttext"		"0"
		"wrap"		"0"
		"centerwrap"		"0"
		"textinsetx"		"6"
		"textinsety"		"0"
		"auto_wide_tocontents"		"0"
		"use_proportional_insets"		"0"
		"Default"		"0"
	}
	"CrosshairImage"
	{
		"ControlName"		"ImagePanel"
		"fieldName"		"CrosshairImage"
		"xpos"		"280"
		"ypos"		"120"
		"wide"		"60"
		"tall"		"60"
		"autoResize"		"0"
		"pinCorner"		"0"
		"RoundedCorners"		"15"
		"pin_corner_to_sibling"		"0"
		"pin_to_sibling_corner"		"0"
		"visible"		"0"
		"enabled"		"1"
		"tabPosition"		"0"
		"image"		"gfx/vgui/crosshair"
		"border"		"DepressedBorder"
		"scaleImage"		"1"
		"scaleAmount"		"0.000000"
		"tileImage"		"0"
		"tileHorizontally"		"0"
		"tileVertically"		"0"
	}
	"Red Color Slider"
	{
		"ControlName"		"CCvarSlider"
		"fieldName"		"Red Color Slider"
		"xpos"		"0"
		"ypos"		"0"
		"wide"		"60"
		"tall"		"20"
		"autoResize"		"0"
		"pinCorner"		"0"
		"RoundedCorners"		"15"
		"pin_corner_to_sibling"		"0"
		"pin_to_sibling_corner"		"0"
		"visible"		"0"
		"enabled"		"1"
		"tabPosition"		"0"
		"leftText"		"0.000000"
		"rightText"		"255.000000"
	}
	"Green Color Slider"
	{
		"ControlName"		"CCvarSlider"
		"fieldName"		"Green Color Slider"
		"xpos"		"0"
		"ypos"		"0"
		"wide"		"60"
		"tall"		"20"
		"autoResize"		"0"
		"pinCorner"		"0"
		"RoundedCorners"		"15"
		"pin_corner_to_sibling"		"0"
		"pin_to_sibling_corner"		"0"
		"visible"		"0"
		"enabled"		"1"
		"tabPosition"		"0"
		"leftText"		"0.000000"
		"rightText"		"255.000000"
	}
	"Blue Color Slider"
	{
		"ControlName"		"CCvarSlider"
		"fieldName"		"Blue Color Slider"
		"xpos"		"0"
		"ypos"		"0"
		"wide"		"60"
		"tall"		"20"
		"autoResize"		"0"
		"pinCorner"		"0"
		"RoundedCorners"		"15"
		"pin_corner_to_sibling"		"0"
		"pin_to_sibling_corner"		"0"
		"visible"		"0"
		"enabled"		"1"
		"tabPosition"		"0"
		"leftText"		"0.000000"
		"rightText"		"255.000000"
	}
	"Scale Slider"
	{
		"ControlName"		"CCvarSlider"
		"fieldName"		"Scale Slider"
		"xpos"		"0"
		"ypos"		"0"
		"wide"		"60"
		"tall"		"20"
		"autoResize"		"0"
		"pinCorner"		"0"
		"RoundedCorners"		"15"
		"pin_corner_to_sibling"		"0"
		"pin_to_sibling_corner"		"0"
		"visible"		"0"
		"enabled"		"1"
		"tabPosition"		"0"
		"leftText"		"16.000000"
		"rightText"		"48.000000"
	}
	"AdvCrosshairList"
	{
		"ControlName"		"CLabeledCommandComboBox"
		"fieldName"		"AdvCrosshairList"
		"xpos"		"0"
		"ypos"		"0"
		"wide"		"60"
		"tall"		"20"
		"autoResize"		"0"
		"pinCorner"		"0"
		"RoundedCorners"		"15"
		"pin_corner_to_sibling"		"0"
		"pin_to_sibling_corner"		"0"
		"visible"		"0"
		"enabled"		"1"
		"tabPosition"		"0"
		"textHidden"		"0"
		"editable"		"0"
		"maxchars"		"-1"
		"NumericInputOnly"		"0"
		"unicode"		"0"
	}
	"AdvCrosshairImage"
	{
		"ControlName"		"ImagePanel"
		"fieldName"		"AdvCrosshairImage"
		"xpos"		"0"
		"ypos"		"0"
		"wide"		"60"
		"tall"		"20"
		"autoResize"		"0"
		"pinCorner"		"0"
		"RoundedCorners"		"15"
		"pin_corner_to_sibling"		"0"
		"pin_to_sibling_corner"		"0"
		"visible"		"0"
		"enabled"		"1"
		"tabPosition"		"0"
		"scaleImage"		"0"
		"scaleAmount"		"0.000000"
		"tileImage"		"0"
		"tileHorizontally"		"0"
		"tileVertically"		"0"
	}
	"DownloadFilterCheck"
	{
		"ControlName"		"ComboBox"
		"fieldName"		"DownloadFilterCheck"
		"xpos"		"10"
		"ypos"		"245"
		"wide"		"240"
		"tall"		"20"
		"autoResize"		"0"
		"pinCorner"		"0"
		"RoundedCorners"		"15"
		"pin_corner_to_sibling"		"0"
		"pin_to_sibling_corner"		"0"
		"visible"		"1"
		"enabled"		"1"
		"tabPosition"		"6"
		"textHidden"		"0"
		"editable"		"0"
		"maxchars"		"-1"
		"NumericInputOnly"		"0"
		"unicode"		"0"
	}
	"CrosshairLabel"
	{
		"ControlName"		"Label"
		"fieldName"		"CrosshairLabel"
		"xpos"		"280"
		"ypos"		"90"
		"wide"		"180"
		"tall"		"20"
		"autoResize"		"0"
		"pinCorner"		"0"
		"RoundedCorners"		"15"
		"pin_corner_to_sibling"		"0"
		"pin_to_sibling_corner"		"0"
		"visible"		"0"
		"enabled"		"1"
		"tabPosition"		"0"
		"labelText"		"#GameUI_CrosshairDescription"
		"textAlignment"		"west"
		"dulltext"		"0"
		"brighttext"		"0"
		"wrap"		"0"
		"centerwrap"		"0"
		"textinsetx"		"0"
		"textinsety"		"0"
		"auto_wide_tocontents"		"0"
		"use_proportional_insets"		"0"
	}
	"SysMenu"
	{
		"ControlName"		"Menu"
		"fieldName"		"SysMenu"
		"xpos"		"0"
		"ypos"		"0"
		"zpos"		"1"
		"wide"		"64"
		"tall"		"24"
		"autoResize"		"0"
		"pinCorner"		"0"
		"RoundedCorners"		"15"
		"pin_corner_to_sibling"		"0"
		"pin_to_sibling_corner"		"0"
		"visible"		"0"
		"enabled"		"1"
		"tabPosition"		"0"
	}
	"topHorizLeft"
	{
		"ControlName"		"Label"
		"fieldName"		"topHorizLeft"
		"xpos"		"185"
		"ypos"		"120"
		"wide"		"20"
		"tall"		"15"
		"autoResize"		"0"
		"pinCorner"		"0"
		"RoundedCorners"		"15"
		"pin_corner_to_sibling"		"0"
		"pin_to_sibling_corner"		"0"
		"visible"		"0"
		"enabled"		"1"
		"tabPosition"		"0"
		"labelText"		"392"
		"textAlignment"		"west"
		"dulltext"		"0"
		"brighttext"		"0"
		"wrap"		"0"
		"centerwrap"		"0"
		"textinsetx"		"0"
		"textinsety"		"0"
		"auto_wide_tocontents"		"0"
		"use_proportional_insets"		"0"
	}
	"topVertLeft"
	{
		"ControlName"		"Label"
		"fieldName"		"topVertLeft"
		"xpos"		"370"
		"ypos"		"55"
		"wide"		"20"
		"tall"		"15"
		"autoResize"		"0"
		"pinCorner"		"0"
		"RoundedCorners"		"15"
		"pin_corner_to_sibling"		"0"
		"pin_to_sibling_corner"		"0"
		"visible"		"0"
		"enabled"		"1"
		"tabPosition"		"0"
		"labelText"		"133"
		"textAlignment"		"west"
		"dulltext"		"0"
		"brighttext"		"0"
		"wrap"		"0"
		"centerwrap"		"0"
		"textinsetx"		"0"
		"textinsety"		"0"
		"auto_wide_tocontents"		"0"
		"use_proportional_insets"		"0"
	}
	"bottomHorizRight"
	{
		"ControlName"		"Label"
		"fieldName"		"bottomHorizRight"
		"xpos"		"505"
		"ypos"		"175"
		"wide"		"20"
		"tall"		"15"
		"autoResize"		"0"
		"pinCorner"		"0"
		"RoundedCorners"		"15"
		"pin_corner_to_sibling"		"0"
		"pin_to_sibling_corner"		"0"
		"visible"		"0"
		"enabled"		"1"
		"tabPosition"		"0"
		"labelText"		"133"
		"textAlignment"		"west"
		"dulltext"		"0"
		"brighttext"		"0"
		"wrap"		"0"
		"centerwrap"		"0"
		"textinsetx"		"0"
		"textinsety"		"0"
		"auto_wide_tocontents"		"0"
		"use_proportional_insets"		"0"
	}
	"bottomVertRight"
	{
		"ControlName"		"Label"
		"fieldName"		"bottomVertRight"
		"xpos"		"495"
		"ypos"		"260"
		"wide"		"20"
		"tall"		"15"
		"autoResize"		"0"
		"pinCorner"		"0"
		"RoundedCorners"		"15"
		"pin_corner_to_sibling"		"0"
		"pin_to_sibling_corner"		"0"
		"visible"		"0"
		"enabled"		"1"
		"tabPosition"		"0"
		"labelText"		"133"
		"textAlignment"		"west"
		"dulltext"		"0"
		"brighttext"		"0"
		"wrap"		"0"
		"centerwrap"		"0"
		"textinsetx"		"0"
		"textinsety"		"0"
		"auto_wide_tocontents"		"0"
		"use_proportional_insets"		"0"
	}
	"Colors"
	{
		"ControlName"		"Label"
		"fieldName"		"Colors"
		"xpos"		"20"
		"ypos"		"160"
		"wide"		"85"
		"tall"		"20"
		"autoResize"		"0"
		"pinCorner"		"0"
		"RoundedCorners"		"15"
		"pin_corner_to_sibling"		"0"
		"pin_to_sibling_corner"		"0"
		"visible"		"0"
		"enabled"		"1"
		"tabPosition"		"0"
		"labelText"		"#GameUI_ColorSliders"
		"textAlignment"		"west"
		"dulltext"		"0"
		"brighttext"		"0"
		"wrap"		"0"
		"centerwrap"		"0"
		"textinsetx"		"0"
		"textinsety"		"0"
		"auto_wide_tocontents"		"0"
		"use_proportional_insets"		"0"
	}
	"Label1"
	{
		"ControlName"		"Label"
		"fieldName"		"Label1"
		"xpos"		"318"
		"ypos"		"220"
		"wide"		"215"
		"tall"		"20"
		"autoResize"		"0"
		"pinCorner"		"0"
		"RoundedCorners"		"15"
		"pin_corner_to_sibling"		"0"
		"pin_to_sibling_corner"		"0"
		"visible"		"1"
		"enabled"		"1"
		"tabPosition"		"0"
		"labelText"		"#GameUI_PlayerModel"
		"textAlignment"		"west"
		"associate"		"Player model"
		"dulltext"		"0"
		"brighttext"		"0"
		"wrap"		"0"
		"centerwrap"		"0"
		"textinsetx"		"0"
		"textinsety"		"0"
		"auto_wide_tocontents"		"0"
		"use_proportional_insets"		"0"
	}
	"Label2"
	{
		"ControlName"		"Label"
		"fieldName"		"Label2"
		"xpos"		"25"
		"ypos"		"30"
		"wide"		"150"
		"tall"		"20"
		"autoResize"		"0"
		"pinCorner"		"0"
		"RoundedCorners"		"15"
		"pin_corner_to_sibling"		"0"
		"pin_to_sibling_corner"		"0"
		"visible"		"1"
		"enabled"		"1"
		"tabPosition"		"0"
		"labelText"		"#GameUI_SpraypaintImage"
		"textAlignment"		"west"
		"associate"		"SpraypaintList"
		"dulltext"		"0"
		"brighttext"		"0"
		"wrap"		"0"
		"centerwrap"		"0"
		"textinsetx"		"0"
		"textinsety"		"0"
		"auto_wide_tocontents"		"0"
		"use_proportional_insets"		"0"
	}
	"Label3"
	{
		"ControlName"		"Label"
		"fieldName"		"Label3"
		"xpos"		"25"
		"ypos"		"125"
		"wide"		"195"
		"tall"		"60"
		"autoResize"		"0"
		"pinCorner"		"0"
		"RoundedCorners"		"15"
		"pin_corner_to_sibling"		"0"
		"pin_to_sibling_corner"		"0"
		"visible"		"1"
		"enabled"		"1"
		"tabPosition"		"0"
		"labelText"		"#GameUI_SpraypaintServerNote"
		"textAlignment"		"north-west"
		"dulltext"		"0"
		"brighttext"		"0"
		"Font"		"defaultSmall"
		"wrap"		"1"
		"centerwrap"		"0"
		"textinsetx"		"0"
		"textinsety"		"0"
		"auto_wide_tocontents"		"0"
		"use_proportional_insets"		"0"
	}
	"DownloadFilterLabel"
	{
		"ControlName"		"Label"
		"fieldName"		"DownloadFilterLabel"
		"xpos"		"10"
		"ypos"		"206"
		"wide"		"275"
		"tall"		"35"
		"autoResize"		"0"
		"pinCorner"		"0"
		"RoundedCorners"		"15"
		"pin_corner_to_sibling"		"0"
		"pin_to_sibling_corner"		"0"
		"visible"		"1"
		"enabled"		"1"
		"tabPosition"		"0"
		"labelText"		"#GameUI_DownloadFilter_Title"
		"textAlignment"		"west"
		"associate"		"DownloadFilterCheck"
		"dulltext"		"0"
		"brighttext"		"0"
		"wrap"		"0"
		"centerwrap"		"0"
		"textinsetx"		"0"
		"textinsety"		"0"
		"auto_wide_tocontents"		"0"
		"use_proportional_insets"		"0"
	}
	"Label4"
	{
		"ControlName"		"Label"
		"fieldName"		"Label4"
		"xpos"		"262"
		"ypos"		"270"
		"wide"		"240"
		"tall"		"47"
		"autoResize"		"0"
		"pinCorner"		"0"
		"RoundedCorners"		"15"
		"pin_corner_to_sibling"		"0"
		"pin_to_sibling_corner"		"0"
		"visible"		"1"
		"enabled"		"1"
		"tabPosition"		"0"
		"labelText"		"#HL2CEUI_PlrMDLNotice"
		"textAlignment"		"west"
		"associate"		"Player model"
		"dulltext"		"0"
		"brighttext"		"0"
		"wrap"		"1"
		"centerwrap"		"0"
		"textinsetx"		"0"
		"textinsety"		"0"
		"auto_wide_tocontents"		"0"
		"use_proportional_insets"		"0"
	}
	"BuildModeDialog"
	{
		"ControlName"		"BuildModeDialog"
		"fieldName"		"BuildModeDialog"
		"xpos"		"0"
		"ypos"		"0"
		"wide"		"187"
		"tall"		"262"
		"autoResize"		"0"
		"pinCorner"		"0"
		"RoundedCorners"		"15"
		"pin_corner_to_sibling"		"0"
		"pin_to_sibling_corner"		"0"
		"visible"		"1"
		"enabled"		"1"
		"tabPosition"		"0"
		"settitlebarvisible"		"1"
		"title"		"#Frame_Untitled"
	}
}
