"Resource/UI/OptionsFlyout.res"
{
	"PnlBackground"
	{
		"ControlName"		"Panel"
		"fieldName"			"PnlBackground"
		"xpos"				"0"
		"ypos"				"0"
		"zpos"				"-1"
		"wide"				"156"
		"tall"				"65" [$X360]
		"tall"				"100" [$WIN32]
		"visible"			"1"
		"enabled"			"1"
		"paintbackground"	"1"
		"paintborder"		"1"
	}
	
	"BtnVideo"
	{
		"ControlName"			"BaseModHybridButton"
		"fieldName"				"BtnVideo"
		"xpos"					"0"
		"ypos"					"0"
		"wide"					"150"
		"tall"					"20"
		"autoResize"			"1"
		"pinCorner"				"0"
		"visible"				"1"
		"enabled"				"1"
		"tabPosition"			"0"
		"navUp"					"BtnCloud"
		"navDown"				"BtnBrightness"
		"tooltiptext"			"#L4D_video_tip"
		"labelText"				"#GameUI_Video"
		"style"					"FlyoutMenuButton"
		"command"				"Video"
	}
	
	"BtnAudio"
	{
		"ControlName"			"BaseModHybridButton"
		"fieldName"				"BtnAudio"
		"xpos"					"0"
		"ypos"					"40"
		"wide"					"150"
		"tall"					"20"
		"autoResize"			"1"
		"pinCorner"				"0"
		"visible"				"1"
		"enabled"				"1"
		"tabPosition"			"0"
		"navUp"					"BtnBrightness"
		"navDown"				"BtnController"
		"tooltiptext"			"#L4D_audio_tip"
		"labelText"				"#GameUI_Audio"
		"style"					"FlyoutMenuButton"
		"command"				"Audio"
	}
	
	"BtnController"
	{
		"ControlName"			"BaseModHybridButton"
		"fieldName"				"BtnController"
		"xpos"					"0"
		"ypos"					"60"
		"wide"					"150"
		"tall"					"20"
		"autoResize"			"1"
		"pinCorner"				"0"
		"visible"				"1"
		"enabled"				"1"
		"tabPosition"			"0"
		"proportionalToParent"	"1"
		"navUp"					"BtnAudio"
		"navDown"				"BtnMultiplayer"
		"tooltiptext"				"#L4D_keyboard_tip"
		"labelText"				"#GameUI_Keyboard"
		"style"					"FlyoutMenuButton"
		"command"				"KeyboardMouse"
	}
	
	"BtnMouse"
	{
		"ControlName"			"BaseModHybridButton"
		"fieldName"				"BtnMouse"
		"xpos"					"0"
		"ypos"					"80"
		"wide"					"150"
		"tall"					"20"
		"autoResize"			"1"
		"pinCorner"				"0"
		"visible"				"1"
		"enabled"				"1"
		"tabPosition"			"0"
		"proportionalToParent"	"1"
		"navUp"					"BtnController"
		"navDown"				"BtnCloud"
		"tooltiptext"				"#L4D_keyboard_tip"
		"labelText"				"#GameUI_Mouse"
		"style"					"FlyoutMenuButton"
		"command"				"Mouse" //"MultiplayerSettings"
	}

}
